{
  "template": {
    "tag": "cells-template-paper-drawer-panel",
    "properties": {
      "disableEdgeSwipe": true,
      "headerFixed": true
    }
  },
   "components": [
    {
      "zone": "app__header",
      "tag": "cells-component-app-header",
      "properties": {
        "text": "Third Page"
      }
    },
    {
      "zone": "app__main",
      "type":"DM",
      "tag": "cells-generic-dp",
      "properties": {
        
        "host": "https://randomuser.me/api/",
        "method": "GET",
        "cellsConnections": {
          "in": {
            "__bridge_page_home": {
              "bind": "generateRequest"
            }
          },
          "out": {
            "ch_image" : {
              "bind": "request-success"
            }
          }
        }
      }
    },
    {
      "zone": "app__main",
      "type":"DM",
      "tag": "cells-third-ui",
      "properties": {
        "cellsConnections": {
          "in": {
            "ch_image": {
              "bind": "processData"
            }
          },
          "out": {
            "ch_datos_api": {
              "bind": "data-image-api"
            }, 
            "ch_header_api": {
              "bind": "data-header-api"
            },
            "ch_flag_api":{
              "bind":"data-flag-api",
              "params":{
                "num":"number"
              }
            } 
          }
        }
      }
    }
    ,
    {
      "zone": "app__main",
      "tag": "cells-image-card",
      "properties": {
        "cellsConnections": {
          "in": {
            "ch_datos_api": {
              "bind": "image-url"
            },
            "ch_header_api": {
              "bind": "heading"
            }
          },
          "out": {
         
          }
        }
      }
    },
    {
      "zone": "app__main",
      "familyPath": "../elements/button-accion",
      "tag": "button-third-accion",
      "properties": {
        "cellsConnections": {
          "in": {
              "ch_flag_api":{
                  "bind":"data-flag-api",
                  "params":{
                    "num":"number"
                  }
              }
          },
          "out": {
            "ch_next": {
              "bind": "home-clicked",
              "link": {
                "page": "home"
              }
            }
          }
        }
      }
    }
  ]
}
