{
  "schema_version": "1.0.0",
  "elements": [
    {
      "description": "# cells-demo-helper\n\n![Certificated](https://img.shields.io/badge/certificated-yes-brightgreen.svg)\n![Polymer 2.x](https://img.shields.io/badge/Polymer-2.x-green.svg)\n\n[Demo of component in Cells Catalog](https://catalogs.platform.bbva.com/cells)\n\n`cells-demo-helper` allows to generate a demo page for multiple demo cases of a component.\n\nIt automatically populates a dropdown with all the available cases.\nIt also inserts the demo in a resizable iframe to ease showing responsive features of the component.\n\nFinally, it places each demo case's code in the code area, so the final user can copy/paste it.\n\n## Usage\n\n`cells-demo-helper` expects to have one or more `cells-demo-case` instances inside it, each instance will be a 'demo case'.\n\nThe component will get the __content__ of each demo case, which must be wrapped in a `<template>` tag, and it will generate dynamically an iframe with the code inside each demo case's template.\n\n__Important:__ the `template` that must be put as child of `cells-demo-case`, and which wraps all the code for the case, won't be passed to the iframe. So, don't use it for `dom-bind` purpose. You can add template tags with dom-bind inside this template tag.\n\n__Important:__ all dependencies inside the iframe will be retrieved from the `<head>` tag of the page in which `cells-demo-helper` is used (that is, the demo html).\n\nAlternatively, you can specify which dependencies should be imported in the demo cases but not in the demo main page using 'rel=\"lazy-import\"' instead of 'rel=\"import\"' for them. This way, just the dependencies with 'lazy-import' will be used inside the demo cases.\n\nIf you want to use some component in the demo but that component is not necessary for the demo case, you can prevent it to be imported by adding the boolean attribute `no-import` to the `<link rel=\"import\">`.\n\n**Example**\n```html\n<link rel=\"import\" href=\"../some-component-used-only-in-the-top-level-frame.html\" no-import>\n```\n\nEach demo should have a `heading` attribute with the title of the case, and an optional `description` attribute with an extended text if necessary.\n\nExample:\n```html\n<head>\n...\n  <link rel=\"import\" href=\"mycomponent/mycomponent.html\">\n</head>\n<body>\n...\n<cells-demo-helper>\n  <cells-demo-case heading=\"Case 1\">\n    <template> <!-- do not use dom-bind in this template tag -->\n      Demo content here\n      <my-component>...</my-component>\n    </template>\n  </cells-demo-case>\n  <cells-demo-case heading=\"Case 2\" description=\"Optional description text\">\n    <template>\n      Demo content here\n      <my-component>...</my-component>\n    </template>\n  </cells-demo-case>\n</cells-demo-helper>\n...\n</body>\n```\n\n## Resizable viewport\n\n`cells-demo-helper` uses `cells-demo-resizable-viewport` to provide resizable features to the iframe, and will use its default values and properties. You can use the following attributes to customize how it behaves:\n\n- __resolution__: initial selected resolution.\n- __breakpoints__: object containing the viewport options, as describen in `cells-demo-resizable-viewport` docs.\n\nExamples:\n```html\n<cells-demo-helper resolution=\"tablet\">\n  <cells-demo-case heading=\"Case 1\">\n    <template>\n      Demo content here\n    </template>\n  </cells-demo-case>\n</cells-demo-helper>\n```\n\n```html\n<cells-demo-helper resolution=\"Mobile\" breakpoints='{\n    \"mobile\": { \"width\": 320, \"height\": 640, \"name\": \"Mobile\" },\n    \"tablet\": { \"width\": 768, \"height\": 1024, \"name\": \"Tablet\" }}'>\n  <cells-demo-case heading=\"Case 1\">\n    <template>\n      Demo content here\n    </template>\n  </cells-demo-case>\n</cells-demo-helper>\n```\n\n## i18n\n\nUsing the `i18n` attribute will insert a `cells-demo-lang-switcher` component. It will receive the default values of that component, although you can customize them using the attributes `langs` and `locales-path`. The lang selection will be propagated to the demo case iframe.\n\nExamples:\n```html\n<cells-demo-helper i18n>\n  <cells-demo-case heading=\"Case 1\">\n    <template>\n      Demo content here\n    </template>\n  </cells-demo-case>\n</cells-demo-helper>\n```\n\n```html\n<cells-demo-helper i18n langs='[\"en\",\"es\"]' locales-path=\"../locales\">\n  <cells-demo-case heading=\"Case 1\">\n    <template>\n      Demo content here\n    </template>\n  </cells-demo-case>\n</cells-demo-helper>\n```\n\n## Events\n\nYou can pass an Array of event names to the `events` attribute, it will be the same than passing them to `cells-demo-event-toaster`, which will add event listeners for all of them.\n\nSo each time one of those events is fired inside the demo cases iframe, a paper-toast element will be fired with the event's information.\n\nExample:\n```html\n<cells-demo-helper events='[\"my-component-event-open\",\"my-component-event-close\"]'>\n  <cells-demo-case heading=\"Case 1\">\n    <template>\n      Demo content here\n    </template>\n  </cells-demo-case>\n</cells-demo-helper>\n```\n\n## Extra Themes\n\nPassing an `available-themes` attribute with an array of strings will generate a dropdown to add the specified themes to your demos. It will add an import to a component with that name (you must have the adequate devDependencies for that component in your bower.json), and will apply it to the demo, without the need to manually add an import in your demo HTML.\n\nOn demo page load, the default theme selected will be the first one of the available themes. If you want to set a different available theme as the demo default one, you can pass its name to the attribute `default-theme`.\n\nExamples:\n```html\n<cells-demo-helper available-themes='[\"cells-coronita-theme\",\"cells-banking-theme\"]'>\n  <cells-demo-case heading=\"Case 1\">\n    <template>\n      Demo content here\n    </template>\n  </cells-demo-case>\n</cells-demo-helper>\n```\n\n```html\n<cells-demo-helper available-themes='[\"cells-coronita-theme\",\"cells-banking-theme\"]' default-theme=\"cells-banking-theme\">\n  <cells-demo-case heading=\"Case 1\">\n    <template>\n      Demo content here\n    </template>\n  </cells-demo-case>\n</cells-demo-helper>\n```\n\n## Hiding header and sidebar for development purposes\n\nThe header and sidebar can be hidden by adding the attribute \"hide-ui\" to the component. This feature may be useful when you need to test the demo in a mobile device.\n\nExample:\n\n```html\n<cells-demo-helper hide-ui></cells-demo-helper>\n```\n\n## Styling\n\nThe following custom properties and mixins are available for styling:\n\nCustom property | Description | Default\n:--- | :--- | :---\n--cells-demo-helper | Mixin for host element | {}\n--cells-demo-helper-case-heading | Mixin for .heading | {}\n--cells-demo-helper-case-heading-description | Mixin for heading description | {}\n--cells-demo-helper-case-heading-title | Mixin for heading title (h1) | {}\n--cells-demo-helper-code | Mixin for \"#code\" | {}\n--cells-demo-helper-code-copy-button | Mixin for copy code button | {}\n--cells-demo-helper-code-overlay-inner | Mixin for inner layer in overlay (code) | {}\n--cells-demo-helper-code-pre | Mixin for \"#code > pre\" | {}\n--cells-demo-helper-code-wrapper | Mixin for .code-wrapper | {}\n--cells-demo-helper-code-wrapper-visible | Mixin for .code-wrapper when is visible | {}\n--cells-demo-helper-dropdown | Mixin for dropdowns | {}\n--cells-demo-helper-header | Mixin for .header | {}\n--cells-demo-helper-iframe | Mixin for \"#iframeContainer iframe\" | {}\n--cells-demo-helper-iframe-container | Mixin for \"#iframeContainer\" | {}\n--cells-demo-helper-iframe-mobile-frame | Mixin for \"#iframeContainer:before\" | {}\n--cells-demo-helper-main | Mixin for \"#main\" | {}\n--cells-demo-helper-medium-iframe-container | Mixin for iframeContainer >768px | {}\n--cells-demo-helper-overlay | Mixin for code overlay | {}\n--cells-demo-helper-overlay-visible | Mixin for code overlay when is visible | {}\n--cells-demo-helper-resize-ui | Mixin for resizer | {}\n--cells-demo-helper-selectors | Mixin for dropdowns wrapper | {}\n--cells-demo-helper-small-iframe-container | Mixin for \"#iframeContainer\" below 768px | {}\n--cells-demo-helper-small-resize-ui | Mixin for resizer below 768px | {}\n--cells-demo-helper-spinner-color-1 | Spinner color 1 | #fc6a7c\n--cells-demo-helper-spinner-color-2 | Spinner color 2 | #1cc3df\n--cells-demo-helper-tabs | Mixin for tabs | {}\n--cells-demo-helper-text-color | Text color | #343B4A\n--cells-demo-helper-top | Mixin for the top row | {}\n--cells-demo-helper-ui-checkbox | Mixin for the hide UI checkbox | {}",
      "summary": "Showcases components demo cases, with multiple options such as i18n or resizable viewport.",
      "path": "cells-demo-helper/cells-demo-helper.js",
      "properties": [
        {
          "name": "_cases",
          "type": "Array | null | undefined",
          "description": "Array with the demo cases",
          "privacy": "protected",
          "sourceRange": {
            "start": {
              "line": 224,
              "column": 6
            },
            "end": {
              "line": 226,
              "column": 7
            }
          },
          "metadata": {
            "polymer": {
              "attributeType": "Array"
            }
          }
        },
        {
          "name": "_markdown",
          "type": "string | null | undefined",
          "description": "Current markdown code to show in code snippet bar",
          "privacy": "protected",
          "sourceRange": {
            "start": {
              "line": 231,
              "column": 6
            },
            "end": {
              "line": 234,
              "column": 7
            }
          },
          "metadata": {
            "polymer": {
              "attributeType": "String"
            }
          },
          "defaultValue": "\"\""
        },
        {
          "name": "_caseTitle",
          "type": "string | null | undefined",
          "description": "Current case title",
          "privacy": "protected",
          "sourceRange": {
            "start": {
              "line": 239,
              "column": 6
            },
            "end": {
              "line": 242,
              "column": 7
            }
          },
          "metadata": {
            "polymer": {
              "attributeType": "String"
            }
          },
          "defaultValue": "\"\""
        },
        {
          "name": "_description",
          "type": "string | null | undefined",
          "description": "Current case description",
          "privacy": "protected",
          "sourceRange": {
            "start": {
              "line": 247,
              "column": 6
            },
            "end": {
              "line": 250,
              "column": 7
            }
          },
          "metadata": {
            "polymer": {
              "attributeType": "String"
            }
          },
          "defaultValue": "\"\""
        },
        {
          "name": "i18n",
          "type": "boolean | null | undefined",
          "description": "Whether the demo must show the lang switcher",
          "privacy": "public",
          "sourceRange": {
            "start": {
              "line": 255,
              "column": 6
            },
            "end": {
              "line": 258,
              "column": 7
            }
          },
          "metadata": {
            "polymer": {
              "attributeType": "Boolean"
            }
          },
          "defaultValue": "false"
        },
        {
          "name": "langs",
          "type": "Array | null | undefined",
          "description": "Array of custom langs to pass to cells-lang-demo-switcher",
          "privacy": "public",
          "sourceRange": {
            "start": {
              "line": 263,
              "column": 6
            },
            "end": {
              "line": 265,
              "column": 7
            }
          },
          "metadata": {
            "polymer": {
              "attributeType": "Array"
            }
          }
        },
        {
          "name": "_lang",
          "type": "string | null | undefined",
          "description": "Current selected lang",
          "privacy": "protected",
          "sourceRange": {
            "start": {
              "line": 270,
              "column": 6
            },
            "end": {
              "line": 275,
              "column": 7
            }
          },
          "metadata": {
            "polymer": {
              "notify": true,
              "observer": "\"_setIframeLang\"",
              "attributeType": "String"
            }
          },
          "defaultValue": "\"en\""
        },
        {
          "name": "localesPath",
          "type": "string | null | undefined",
          "description": "Path of custom locales folder to pass to cells-lang-demo-switcher",
          "privacy": "public",
          "sourceRange": {
            "start": {
              "line": 280,
              "column": 6
            },
            "end": {
              "line": 282,
              "column": 7
            }
          },
          "metadata": {
            "polymer": {
              "attributeType": "String"
            }
          }
        },
        {
          "name": "events",
          "type": "Array | null | undefined",
          "description": "Array of events which cells-demo-event-toaster should listen for",
          "privacy": "public",
          "sourceRange": {
            "start": {
              "line": 287,
              "column": 6
            },
            "end": {
              "line": 289,
              "column": 7
            }
          },
          "metadata": {
            "polymer": {
              "attributeType": "Array"
            }
          }
        },
        {
          "name": "resolution",
          "type": "string | null | undefined",
          "description": "Default resolution key for the iframe",
          "privacy": "public",
          "sourceRange": {
            "start": {
              "line": 294,
              "column": 6
            },
            "end": {
              "line": 297,
              "column": 7
            }
          },
          "metadata": {
            "polymer": {
              "attributeType": "String"
            }
          },
          "defaultValue": "\"mobile\""
        },
        {
          "name": "_resolution",
          "type": "Object | null | undefined",
          "description": "",
          "privacy": "protected",
          "sourceRange": {
            "start": {
              "line": 299,
              "column": 6
            },
            "end": {
              "line": 301,
              "column": 7
            }
          },
          "metadata": {
            "polymer": {
              "attributeType": "Object"
            }
          }
        },
        {
          "name": "breakpoints",
          "type": "Object | null | undefined",
          "description": "Custom breakpoints for cells-demo-resizable-viewport",
          "privacy": "public",
          "sourceRange": {
            "start": {
              "line": 306,
              "column": 6
            },
            "end": {
              "line": 308,
              "column": 7
            }
          },
          "metadata": {
            "polymer": {
              "attributeType": "Object"
            }
          }
        },
        {
          "name": "_noTheme",
          "type": "string | null | undefined",
          "description": "Default \"no theme\" option text",
          "privacy": "protected",
          "sourceRange": {
            "start": {
              "line": 313,
              "column": 6
            },
            "end": {
              "line": 316,
              "column": 7
            }
          },
          "metadata": {
            "polymer": {
              "attributeType": "String"
            }
          },
          "defaultValue": "\"standalone (no theme)\""
        },
        {
          "name": "availableThemes",
          "type": "Array | null | undefined",
          "description": "Additional available themes for the demo",
          "privacy": "public",
          "sourceRange": {
            "start": {
              "line": 321,
              "column": 6
            },
            "end": {
              "line": 323,
              "column": 7
            }
          },
          "metadata": {
            "polymer": {
              "attributeType": "Array"
            }
          }
        },
        {
          "name": "_themes",
          "type": "Array | null | undefined",
          "description": "Full list of themes used",
          "privacy": "protected",
          "sourceRange": {
            "start": {
              "line": 328,
              "column": 6
            },
            "end": {
              "line": 331,
              "column": 7
            }
          },
          "metadata": {
            "polymer": {
              "readOnly": true,
              "attributeType": "Array"
            }
          }
        },
        {
          "name": "defaultTheme",
          "type": "string | null | undefined",
          "description": "Selected theme on page load",
          "privacy": "public",
          "sourceRange": {
            "start": {
              "line": 336,
              "column": 6
            },
            "end": {
              "line": 339,
              "column": 7
            }
          },
          "metadata": {
            "polymer": {
              "attributeType": "String"
            }
          },
          "defaultValue": "\"\""
        },
        {
          "name": "selectedTheme",
          "type": "number | null | undefined",
          "description": "Index of the selected theme",
          "privacy": "public",
          "sourceRange": {
            "start": {
              "line": 344,
              "column": 6
            },
            "end": {
              "line": 348,
              "column": 7
            }
          },
          "metadata": {
            "polymer": {
              "notify": true,
              "attributeType": "Number"
            }
          },
          "defaultValue": "0"
        },
        {
          "name": "_currentTheme",
          "type": "string | null | undefined",
          "description": "Stores current selected theme",
          "privacy": "protected",
          "sourceRange": {
            "start": {
              "line": 353,
              "column": 6
            },
            "end": {
              "line": 355,
              "column": 7
            }
          },
          "metadata": {
            "polymer": {
              "attributeType": "String"
            }
          }
        },
        {
          "name": "_tpl",
          "type": "string | null | undefined",
          "description": "Stores current iframe template",
          "privacy": "protected",
          "sourceRange": {
            "start": {
              "line": 360,
              "column": 6
            },
            "end": {
              "line": 362,
              "column": 7
            }
          },
          "metadata": {
            "polymer": {
              "attributeType": "String"
            }
          }
        },
        {
          "name": "selected",
          "type": "number | null | undefined",
          "description": "Index of the selected demo-case.",
          "privacy": "public",
          "sourceRange": {
            "start": {
              "line": 367,
              "column": 6
            },
            "end": {
              "line": 371,
              "column": 7
            }
          },
          "metadata": {
            "polymer": {
              "notify": true,
              "attributeType": "Number"
            }
          },
          "defaultValue": "0"
        },
        {
          "name": "_noHead",
          "type": "boolean | null | undefined",
          "description": "Prevents current document head to be passed on to the iframe. Useful for testing purposes",
          "privacy": "protected",
          "sourceRange": {
            "start": {
              "line": 376,
              "column": 6
            },
            "end": {
              "line": 379,
              "column": 7
            }
          },
          "metadata": {
            "polymer": {
              "attributeType": "Boolean"
            }
          },
          "defaultValue": "false"
        },
        {
          "name": "multiToast",
          "type": "boolean | null | undefined",
          "description": "Allow to show multiple toasts simultaneously",
          "privacy": "public",
          "sourceRange": {
            "start": {
              "line": 384,
              "column": 6
            },
            "end": {
              "line": 387,
              "column": 7
            }
          },
          "metadata": {
            "polymer": {
              "attributeType": "Boolean"
            }
          },
          "defaultValue": "false"
        },
        {
          "name": "_toastAlign",
          "type": "string | null | undefined",
          "description": "",
          "privacy": "protected",
          "sourceRange": {
            "start": {
              "line": 389,
              "column": 6
            },
            "end": {
              "line": 392,
              "column": 7
            }
          },
          "metadata": {
            "polymer": {
              "attributeType": "String"
            }
          },
          "defaultValue": "\"bottom\""
        },
        {
          "name": "_toastPositionTarget",
          "type": "Element | null | undefined",
          "description": "",
          "privacy": "protected",
          "sourceRange": {
            "start": {
              "line": 394,
              "column": 6
            },
            "end": {
              "line": 396,
              "column": 7
            }
          },
          "metadata": {
            "polymer": {
              "attributeType": "Element"
            }
          }
        },
        {
          "name": "_tabs",
          "type": "Array | null | undefined",
          "description": "",
          "privacy": "protected",
          "sourceRange": {
            "start": {
              "line": 398,
              "column": 6
            },
            "end": {
              "line": 403,
              "column": 7
            }
          },
          "metadata": {
            "polymer": {
              "attributeType": "Array"
            }
          },
          "defaultValue": "[\"Preview\",\"Code\"]"
        },
        {
          "name": "_tabindex",
          "type": "number | null | undefined",
          "description": "Used to set a negative tabindex to focusable elements\nwhen the code tab is active.",
          "privacy": "protected",
          "sourceRange": {
            "start": {
              "line": 409,
              "column": 6
            },
            "end": {
              "line": 411,
              "column": 7
            }
          },
          "metadata": {
            "polymer": {
              "attributeType": "Number"
            }
          }
        },
        {
          "name": "_selectedTab",
          "type": "number | null | undefined",
          "description": "",
          "privacy": "protected",
          "sourceRange": {
            "start": {
              "line": 413,
              "column": 6
            },
            "end": {
              "line": 418,
              "column": 7
            }
          },
          "metadata": {
            "polymer": {
              "notify": true,
              "observer": "\"_selectedTabChanged\"",
              "attributeType": "Number"
            }
          },
          "defaultValue": "0"
        },
        {
          "name": "hideUi",
          "type": "boolean | null | undefined",
          "description": "Set to true to hide all the UI elements except the preview for development purposes.",
          "privacy": "public",
          "sourceRange": {
            "start": {
              "line": 423,
              "column": 6
            },
            "end": {
              "line": 427,
              "column": 7
            }
          },
          "metadata": {
            "polymer": {
              "attributeType": "Boolean"
            }
          },
          "defaultValue": "false"
        },
        {
          "name": "_firstRender",
          "type": "boolean | null | undefined",
          "description": "Used to show the spinner only the first time (not between demos).",
          "privacy": "protected",
          "sourceRange": {
            "start": {
              "line": 432,
              "column": 6
            },
            "end": {
              "line": 435,
              "column": 7
            }
          },
          "metadata": {
            "polymer": {
              "attributeType": "Boolean"
            }
          },
          "defaultValue": "true"
        },
        {
          "name": "showStyleModuleWarnings",
          "type": "boolean | null | undefined",
          "description": "Show console warnings about style modules not found in components (shared-styles).",
          "privacy": "public",
          "sourceRange": {
            "start": {
              "line": 440,
              "column": 6
            },
            "end": {
              "line": 443,
              "column": 7
            }
          },
          "metadata": {
            "polymer": {
              "attributeType": "Boolean"
            }
          },
          "defaultValue": "false"
        },
        {
          "name": "_polymerGlobalSettingsScript",
          "type": "string | null | undefined",
          "description": "",
          "privacy": "protected",
          "sourceRange": {
            "start": {
              "line": 445,
              "column": 6
            },
            "end": {
              "line": 448,
              "column": 7
            }
          },
          "metadata": {
            "polymer": {
              "attributeType": "String"
            }
          },
          "defaultValue": "\"\""
        },
        {
          "name": "_editorValue",
          "type": "string | null | undefined",
          "description": "",
          "privacy": "protected",
          "sourceRange": {
            "start": {
              "line": 449,
              "column": 6
            },
            "end": {
              "line": 452,
              "column": 7
            }
          },
          "metadata": {
            "polymer": {
              "observer": "\"_updateDemo\"",
              "attributeType": "String"
            }
          }
        }
      ],
      "methods": [
        {
          "name": "connectedCallback",
          "description": "",
          "privacy": "public",
          "sourceRange": {
            "start": {
              "line": 464,
              "column": 2
            },
            "end": {
              "line": 476,
              "column": 3
            }
          },
          "metadata": {},
          "params": [],
          "return": {
            "type": "void"
          }
        },
        {
          "name": "_onSelectedCaseIndexChanged",
          "description": "",
          "privacy": "protected",
          "sourceRange": {
            "start": {
              "line": 478,
              "column": 2
            },
            "end": {
              "line": 484,
              "column": 3
            }
          },
          "metadata": {},
          "params": [
            {
              "name": "index"
            },
            {
              "name": "cases"
            }
          ],
          "return": {
            "type": "void"
          }
        },
        {
          "name": "_onSelectedThemeIndexChanged",
          "description": "",
          "privacy": "protected",
          "sourceRange": {
            "start": {
              "line": 486,
              "column": 2
            },
            "end": {
              "line": 492,
              "column": 3
            }
          },
          "metadata": {},
          "params": [
            {
              "name": "index"
            },
            {
              "name": "cases"
            },
            {
              "name": "themes"
            }
          ],
          "return": {
            "type": "void"
          }
        },
        {
          "name": "_onDefaultThemeChanged",
          "description": "",
          "privacy": "protected",
          "sourceRange": {
            "start": {
              "line": 494,
              "column": 2
            },
            "end": {
              "line": 506,
              "column": 3
            }
          },
          "metadata": {},
          "params": [
            {
              "name": "defaultTheme"
            },
            {
              "name": "themes"
            }
          ],
          "return": {
            "type": "void"
          }
        },
        {
          "name": "_isActiveTab",
          "description": "",
          "privacy": "protected",
          "sourceRange": {
            "start": {
              "line": 508,
              "column": 2
            },
            "end": {
              "line": 510,
              "column": 3
            }
          },
          "metadata": {},
          "params": [
            {
              "name": "selectedTab"
            },
            {
              "name": "tabName"
            }
          ]
        },
        {
          "name": "_selectedTabChanged",
          "description": "",
          "privacy": "protected",
          "sourceRange": {
            "start": {
              "line": 512,
              "column": 2
            },
            "end": {
              "line": 520,
              "column": 3
            }
          },
          "metadata": {},
          "params": [
            {
              "name": "tab"
            }
          ],
          "return": {
            "type": "void"
          }
        },
        {
          "name": "_updateDemo",
          "description": "",
          "privacy": "protected",
          "sourceRange": {
            "start": {
              "line": 522,
              "column": 2
            },
            "end": {
              "line": 528,
              "column": 3
            }
          },
          "metadata": {},
          "params": [
            {
              "name": "editorValue"
            },
            {
              "name": "previousValue"
            }
          ],
          "return": {
            "type": "void"
          }
        },
        {
          "name": "_computedThemes",
          "description": "",
          "privacy": "protected",
          "sourceRange": {
            "start": {
              "line": 530,
              "column": 2
            },
            "end": {
              "line": 544,
              "column": 3
            }
          },
          "metadata": {},
          "params": [
            {
              "name": "theme"
            },
            {
              "name": "availableThemes"
            }
          ]
        },
        {
          "name": "_langAdder",
          "description": "Returns the script of initial i18n values to insert in the iframe",
          "privacy": "protected",
          "sourceRange": {
            "start": {
              "line": 549,
              "column": 2
            },
            "end": {
              "line": 556,
              "column": 3
            }
          },
          "metadata": {},
          "params": []
        },
        {
          "name": "_setIframeLang",
          "description": "Changes dinamically the lang attribute and i18n variables in the iframe",
          "privacy": "protected",
          "sourceRange": {
            "start": {
              "line": 562,
              "column": 2
            },
            "end": {
              "line": 575,
              "column": 3
            }
          },
          "metadata": {},
          "params": [
            {
              "name": "lng",
              "type": "String",
              "description": "lang code"
            }
          ],
          "return": {
            "type": "void"
          }
        },
        {
          "name": "_setCasesDropdown",
          "description": "Populates cases array based on available cells-demo-case contents",
          "privacy": "protected",
          "sourceRange": {
            "start": {
              "line": 580,
              "column": 2
            },
            "end": {
              "line": 590,
              "column": 3
            }
          },
          "metadata": {},
          "params": [],
          "return": {
            "type": "void"
          }
        },
        {
          "name": "_getHeadForIframe",
          "description": "",
          "privacy": "protected",
          "sourceRange": {
            "start": {
              "line": 592,
              "column": 2
            },
            "end": {
              "line": 640,
              "column": 3
            }
          },
          "metadata": {},
          "params": []
        },
        {
          "name": "_setIframe",
          "description": "Generates iframe for selected case",
          "privacy": "protected",
          "sourceRange": {
            "start": {
              "line": 645,
              "column": 2
            },
            "end": {
              "line": 677,
              "column": 3
            }
          },
          "metadata": {},
          "params": [
            {
              "name": "elem"
            }
          ],
          "return": {
            "type": "void"
          }
        },
        {
          "name": "_setCurrentCase",
          "description": "",
          "privacy": "protected",
          "sourceRange": {
            "start": {
              "line": 679,
              "column": 2
            },
            "end": {
              "line": 683,
              "column": 3
            }
          },
          "metadata": {},
          "params": [
            {
              "name": "elem"
            }
          ],
          "return": {
            "type": "void"
          }
        },
        {
          "name": "_getDemoCaseHtml",
          "description": "",
          "privacy": "protected",
          "sourceRange": {
            "start": {
              "line": 685,
              "column": 2
            },
            "end": {
              "line": 687,
              "column": 3
            }
          },
          "metadata": {},
          "params": [
            {
              "name": "elem"
            }
          ]
        },
        {
          "name": "_generateIframe",
          "description": "",
          "privacy": "protected",
          "sourceRange": {
            "start": {
              "line": 689,
              "column": 2
            },
            "end": {
              "line": 739,
              "column": 3
            }
          },
          "metadata": {},
          "params": [
            {
              "name": "elem"
            }
          ]
        },
        {
          "name": "_cleanIframe",
          "description": "Removes existing iframes",
          "privacy": "protected",
          "sourceRange": {
            "start": {
              "line": 744,
              "column": 2
            },
            "end": {
              "line": 750,
              "column": 3
            }
          },
          "metadata": {},
          "params": [],
          "return": {
            "type": "void"
          }
        },
        {
          "name": "_parseContent",
          "description": "",
          "privacy": "protected",
          "sourceRange": {
            "start": {
              "line": 751,
              "column": 2
            },
            "end": {
              "line": 763,
              "column": 3
            }
          },
          "metadata": {},
          "params": [
            {
              "name": "str"
            }
          ]
        },
        {
          "name": "_passEvents",
          "description": "Creates listener for events inside iframe and propagates events firing to cells-demo-event-toaster",
          "privacy": "protected",
          "sourceRange": {
            "start": {
              "line": 769,
              "column": 2
            },
            "end": {
              "line": 783,
              "column": 3
            }
          },
          "metadata": {},
          "params": [
            {
              "name": "iframe"
            }
          ],
          "return": {
            "type": "void"
          }
        },
        {
          "name": "_copyToClipboard",
          "description": "Copies code snippet to clipboard",
          "privacy": "protected",
          "sourceRange": {
            "start": {
              "line": 788,
              "column": 2
            },
            "end": {
              "line": 812,
              "column": 3
            }
          },
          "metadata": {},
          "params": [],
          "return": {
            "type": "void"
          }
        },
        {
          "name": "_resetCopyButtonState",
          "description": "Reset copy button text",
          "privacy": "protected",
          "sourceRange": {
            "start": {
              "line": 817,
              "column": 2
            },
            "end": {
              "line": 819,
              "column": 3
            }
          },
          "metadata": {},
          "params": [],
          "return": {
            "type": "void"
          }
        },
        {
          "name": "_computeHeight",
          "description": "",
          "privacy": "protected",
          "sourceRange": {
            "start": {
              "line": 821,
              "column": 2
            },
            "end": {
              "line": 823,
              "column": 3
            }
          },
          "metadata": {},
          "params": [
            {
              "name": "height"
            }
          ]
        }
      ],
      "staticMethods": [],
      "demos": [
        {
          "url": "demo/index.html",
          "description": ""
        }
      ],
      "metadata": {},
      "sourceRange": {
        "start": {
          "line": 215,
          "column": 0
        },
        "end": {
          "line": 824,
          "column": 1
        }
      },
      "privacy": "public",
      "superclass": "Polymer.Element",
      "name": "CellsDemoHelper",
      "attributes": [
        {
          "name": "i18n",
          "description": "Whether the demo must show the lang switcher",
          "sourceRange": {
            "start": {
              "line": 255,
              "column": 6
            },
            "end": {
              "line": 258,
              "column": 7
            }
          },
          "metadata": {},
          "type": "boolean | null | undefined"
        },
        {
          "name": "langs",
          "description": "Array of custom langs to pass to cells-lang-demo-switcher",
          "sourceRange": {
            "start": {
              "line": 263,
              "column": 6
            },
            "end": {
              "line": 265,
              "column": 7
            }
          },
          "metadata": {},
          "type": "Array | null | undefined"
        },
        {
          "name": "locales-path",
          "description": "Path of custom locales folder to pass to cells-lang-demo-switcher",
          "sourceRange": {
            "start": {
              "line": 280,
              "column": 6
            },
            "end": {
              "line": 282,
              "column": 7
            }
          },
          "metadata": {},
          "type": "string | null | undefined"
        },
        {
          "name": "events",
          "description": "Array of events which cells-demo-event-toaster should listen for",
          "sourceRange": {
            "start": {
              "line": 287,
              "column": 6
            },
            "end": {
              "line": 289,
              "column": 7
            }
          },
          "metadata": {},
          "type": "Array | null | undefined"
        },
        {
          "name": "resolution",
          "description": "Default resolution key for the iframe",
          "sourceRange": {
            "start": {
              "line": 294,
              "column": 6
            },
            "end": {
              "line": 297,
              "column": 7
            }
          },
          "metadata": {},
          "type": "string | null | undefined"
        },
        {
          "name": "breakpoints",
          "description": "Custom breakpoints for cells-demo-resizable-viewport",
          "sourceRange": {
            "start": {
              "line": 306,
              "column": 6
            },
            "end": {
              "line": 308,
              "column": 7
            }
          },
          "metadata": {},
          "type": "Object | null | undefined"
        },
        {
          "name": "available-themes",
          "description": "Additional available themes for the demo",
          "sourceRange": {
            "start": {
              "line": 321,
              "column": 6
            },
            "end": {
              "line": 323,
              "column": 7
            }
          },
          "metadata": {},
          "type": "Array | null | undefined"
        },
        {
          "name": "default-theme",
          "description": "Selected theme on page load",
          "sourceRange": {
            "start": {
              "line": 336,
              "column": 6
            },
            "end": {
              "line": 339,
              "column": 7
            }
          },
          "metadata": {},
          "type": "string | null | undefined"
        },
        {
          "name": "selected-theme",
          "description": "Index of the selected theme",
          "sourceRange": {
            "start": {
              "line": 344,
              "column": 6
            },
            "end": {
              "line": 348,
              "column": 7
            }
          },
          "metadata": {},
          "type": "number | null | undefined"
        },
        {
          "name": "selected",
          "description": "Index of the selected demo-case.",
          "sourceRange": {
            "start": {
              "line": 367,
              "column": 6
            },
            "end": {
              "line": 371,
              "column": 7
            }
          },
          "metadata": {},
          "type": "number | null | undefined"
        },
        {
          "name": "multi-toast",
          "description": "Allow to show multiple toasts simultaneously",
          "sourceRange": {
            "start": {
              "line": 384,
              "column": 6
            },
            "end": {
              "line": 387,
              "column": 7
            }
          },
          "metadata": {},
          "type": "boolean | null | undefined"
        },
        {
          "name": "hide-ui",
          "description": "Set to true to hide all the UI elements except the preview for development purposes.",
          "sourceRange": {
            "start": {
              "line": 423,
              "column": 6
            },
            "end": {
              "line": 427,
              "column": 7
            }
          },
          "metadata": {},
          "type": "boolean | null | undefined"
        },
        {
          "name": "show-style-module-warnings",
          "description": "Show console warnings about style modules not found in components (shared-styles).",
          "sourceRange": {
            "start": {
              "line": 440,
              "column": 6
            },
            "end": {
              "line": 443,
              "column": 7
            }
          },
          "metadata": {},
          "type": "boolean | null | undefined"
        }
      ],
      "events": [
        {
          "type": "CustomEvent",
          "name": "selected-theme-changed",
          "description": "Fired when the `selectedTheme` property changes.",
          "metadata": {}
        },
        {
          "type": "CustomEvent",
          "name": "selected-changed",
          "description": "Fired when the `selected` property changes.",
          "metadata": {}
        }
      ],
      "styling": {
        "cssVariables": [],
        "selectors": []
      },
      "slots": [],
      "tagname": "cells-demo-helper"
    }
  ]
}
